EF_RULE (0030) CREATE:
00 E0 00 00 17 
62 15 82 05 14 41 00 05 01 83 02 00 30 85 02 00 
05 88 01 08 8A 01 05 

EF_RULE (0030) APPEND RECORD #1:
00 E2 00 00 05 
80 01 7F  90 00 

DF (0010) CREATE:
00 E0 38 00 13 
62 11 82 01 38 83 02 00 10 84 05 D2 76 00 00 25 
8A 01 05 

EF_RULE (0030) CREATE:
00 E0 00 00 14 
62 12 82 05 14 41 00 20 04 83 02 00 30 85 02 00 
14 8A 01 05 

EF_RULE (0030) APPEND RECORD #1:
00 E2 00 00 05 
80 01 83 90 00 

EF_RULE (0030) APPEND RECORD #2:
00 E2 00 00 05 
80 01 83 90 00 

EF_RULE (0030) APPEND RECORD #3:
00 E2 00 00 05 
80 01 87 90 00 

EF_RULE (0030) APPEND RECORD #4:
00 E2 00 00 05 
80 01 87 90 00 

EF (001A) CREATE:
00 E0 00 00 15 
62 13 80 02 00 40 82 01 11 83 02 00 1A 8A 01 05 
A1 03 8B 01 01 

EF (001A) UPDATE BINARY Block #1:
00 D6 00 00 40 
AA AA AA AA AA AA AA AA AA AA AA AA AA AA AA AA 
BB BB BB BB BB BB BB BB BB BB BB BB BB BB BB BB 
CC CC CC CC CC CC CC CC CC CC CC CC CC CC CC CC 
DD DD DD DD DD DD DD DD DD DD DD DD DD DD DD DD 

EF (001B) CREATE:
00 E0 00 00 15 
62 13 82 05 12 41 00 08 04 83 02 00 1B 8A 01 05 
A1 03 8B 01 02 

EF (001B) APPEND RECORD #1:
00 E2 00 00 08 
AA AA AA AA AA AA AA AA 

EF (001B) APPEND RECORD #2:
00 E2 00 00 08 
FF FF FF FF FF FF FF FF 

EF (001B) APPEND RECORD #3:
00 E2 00 00 08 
BB BB BB BB BB BB BB BB 

EF (001B) APPEND RECORD #4:
00 E2 00 00 08 
FF FF FF FF FF FF FF FF 

EF (001C) CREATE:
00 E0 00 00 19 
62 17 82 05 14 41 00 20 04 83 02 00 1C 85 02 00 
17 8A 01 05 A1 03 8B 01 03 

EF (001C) APPEND RECORD #1:
00 E2 00 00 08 
11 11 11 11 11 11 11 11 

EF (001C) APPEND RECORD #2:
00 E2 00 00 07 
22 22 22 22 22 22 22 

EF (001C) APPEND RECORD #3:
00 E2 00 00 06 
33 33 33 33 33 33 

EF (001C) APPEND RECORD #4:
00 E2 00 00 02 
FF FF 

EF (001D) CREATE:
00 E0 00 00 15 
62 13 82 05 16 41 00 06 03 83 02 00 1D 8A 01 05 
A1 03 8B 01 04 

EF (001D) APPEND RECORD #2:
00 E2 00 00 06 
CC CC CC CC CC CC 

EF (001D) APPEND RECORD #1:
00 E2 00 00 06 
FF FF FF FF FF FF 

MF (3F00) SELECT:
00 A4 03 0C 

DF (000A) CREATE:
00 E0 38 00 13 
62 11 82 01 38 83 02 00 0A 84 05 D2 76 00 00 26 
8A 01 05 

EF_RULE (0030) CREATE:
00 E0 00 00 14 
62 12 82 05 14 41 00 20 04 83 02 00 30 85 02 00 
22 8A 01 05 

EF_RULE (0030) APPEND RECORD #1:
00 E2 00 00 05 
80 01 87 90 00 

EF_RULE (0030) APPEND RECORD #2:
00 E2 00 00 0C 
80 01 81 A4 07 95 01 08 83 02 80 01 

EF_RULE (0030) APPEND RECORD #3:
00 E2 00 00 0C 
80 01 83 A4 07 95 01 08 83 02 80 02 

EF_RULE (0030) APPEND RECORD #4:
00 E2 00 00 05 
80 01 07 90 00 

EF (001A) CREATE:
00 E0 00 00 15 
62 13 80 02 00 40 82 01 11 83 02 00 1A 8A 01 05 
A1 03 8B 01 02 

EF (001A) UPDATE BINARY Block #1:
00 D6 00 00 40 
AA AA AA AA AA AA AA AA AA AA AA AA AA AA AA AA 
BB BB BB BB BB BB BB BB BB BB BB BB BB BB BB BB 
CC CC CC CC CC CC CC CC CC CC CC CC CC CC CC CC 
DD DD DD DD DD DD DD DD DD DD DD DD DD DD DD DD 

EF (001B) CREATE:
00 E0 00 00 19 
62 17 82 05 14 41 00 20 04 83 02 00 1B 85 02 00 
17 8A 01 05 A1 03 8B 01 03 

EF (001B) APPEND RECORD #1:
00 E2 00 00 08 
11 11 11 11 11 11 11 11 

EF (001B) APPEND RECORD #2:
00 E2 00 00 07 
22 22 22 22 22 22 22 

EF (001B) APPEND RECORD #3:
00 E2 00 00 06 
33 33 33 33 33 33 

EF (001B) APPEND RECORD #4:
00 E2 00 00 02 
FF FF 

EF_PWD (0012) CREATE:
00 E0 00 00 10 
62 0E 82 05 12 41 00 09 02 83 02 00 12 8A 01 05 

EF_PWD (0012) APPEND RECORD #1:
00 E2 00 00 09 
08 65 5E A6 28 CF 62 58 5F 

EF_PWD (0012) APPEND RECORD #2:
00 E2 00 00 09 
08 AC 97 8C 24 78 63 38 8F 

EF_PWDD (0015) CREATE:
00 E0 00 00 14 
62 12 82 05 04 41 00 20 02 83 02 00 15 85 02 00 
2A 8A 01 05 

EF_PWDD (0015) APPEND RECORD #1:
00 E2 00 00 15 
93 02 01 01 89 02 21 90 A1 03 8B 01 01 7B 06 80 
01 00 89 01 21 

EF_PWDD (0015) APPEND RECORD #2:
00 E2 00 00 15 
93 02 02 02 89 02 21 90 A1 03 8B 01 04 7B 06 80 
01 00 89 01 21 

EF_PFPC (0016) CREATE:
00 E0 00 00 10 
62 0E 82 05 12 41 00 02 01 83 02 00 16 8A 01 05 

EF_PFPC (0016) APPEND RECORD #1:
00 E2 00 00 02 
03 03 

MF (3F00) SELECT:
00 A4 03 0C 

DF (000B) CREATE:
00 E0 38 00 13 
62 11 82 01 38 83 02 00 0B 84 05 D2 76 00 00 27 
8A 01 05 

EF_RULE (0030) CREATE:
00 E0 00 00 14 
62 12 82 05 14 41 00 20 03 83 02 00 30 85 02 00 
0F 8A 01 05 

EF_RULE (0030) APPEND RECORD #1:
00 E2 00 00 05 
80 01 7F 90 00 

EF_RULE (0030) APPEND RECORD #2:
00 E2 00 00 05 
84 01 88 90 00 

EF_RULE (0030) APPEND RECORD #3:
00 E2 00 00 05 
84 01 82 90 00 

EF_KEY (0010) CREATE:
00 E0 00 00 10 
62 0E 82 05 12 41 00 12 01 83 02 00 10 8A 01 05 

EF_KEY (0010) APPEND RECORD #1:
00 E2 00 00 12 
01 00 20 20 20 20 20 20 20 20 40 40 40 40 40 40 
40 40 

EF_KEY (0011) CREATE:
00 E0 00 00 10 
62 0E 82 05 12 41 00 12 01 83 02 00 11 8A 01 05 

EF_KEY (0011) APPEND RECORD #1:
00 E2 00 00 12 
02 00 11 22 33 44 55 66 77 88 11 22 33 44 55 66 
77 88 

EF_KEYD (0013) CREATE:
00 E0 00 00 14 
62 12 82 05 14 41 00 20 02 83 02 00 13 85 02 00 
2E 8A 01 05 

EF_KEYD (0013) APPEND RECORD #1:
00 E2 00 00 16 
93 02 01 00 C0 02 81 10 7B 0C 80 01 00 A4 07 95 
01 40 89 02 21 12 

EF_KEYD (0013) APPEND RECORD #2:
00 E2 00 00 18 
93 04 02 00 00 11 C0 02 81 10 7B 0C 80 01 00 A4 
07 95 01 80 89 02 21 22 

MF (3F00) SELECT:
00 A4 03 0C 

DF (000C) CREATE:
00 E0 38 00 13 
62 11 82 01 38 83 02 00 0C 84 05 D2 76 00 00 28 
8A 01 05 

EF_RULE (0030) CREATE:
00 E0 00 00 14 
62 12 82 05 14 41 00 20 03 83 02 00 30 85 02 00 
13 8A 01 05 

EF_RULE (0030) APPEND RECORD #1:
00 E2 00 00 05 
80 01 83 90 00 

EF_RULE (0030) APPEND RECORD #2:
00 E2 00 00 0E 
84 03 46 2A 88 A4 07 95 01 08 83 02 80 01 

EF_PWD (0012) CREATE:
00 E0 00 00 10 
62 0E 82 05 12 41 00 09 01 83 02 00 12 8A 01 05 

EF_PWD (0012) APPEND RECORD #1:
00 E2 00 00 09 
08 96 D0 02 88 78 D5 8C 89 

EF_PWDD (0015) CREATE:
00 E0 00 00 14 
62 12 82 05 04 41 00 20 01 83 02 00 15 85 02 00 
15 8A 01 05 

EF_PWDD (0015) APPEND RECORD #1:
00 E2 00 00 15 
93 02 01 01 89 02 21 90 A1 03 8B 01 01 7B 06 80 
01 00 89 01 21 

EF_PFPC (0016) CREATE:
00 E0 00 00 10 
62 0E 82 05 12 41 00 02 01 83 02 00 16 8A 01 05 

EF_PFPC (0016) APPEND RECORD #1:
00 E2 00 00 02 
03 03 

EF_PuK_RSA (0E00) CREATE:
00 E0 00 00 15 
62 13 80 02 01 0B 82 01 11 83 02 0E 00 8A 01 05 
A1 03 8B 01 01 

EF_PuK_RSA (0E00) UPDATE BINARY Block #1:
00 D6 00 00 70 
00 00 00 00 00 00 00 00 00 00 00 00 00 00 00 00 
00 00 00 00 00 00 00 00 00 00 00 00 00 00 00 00 
00 00 00 00 00 00 00 00 00 00 00 00 00 00 00 00 
00 00 00 00 00 00 00 00 00 00 00 00 00 00 00 00 
00 00 00 00 00 00 00 00 00 00 00 00 00 00 00 00 
00 00 00 00 00 00 00 00 00 00 00 00 00 00 00 00 
00 00 00 00 00 00 00 00 00 00 00 00 00 00 00 00 

EF_PuK_RSA (0E00) UPDATE BINARY Block #2:
00 D6 00 70 70 
00 00 00 00 00 00 00 00 00 00 00 00 00 00 00 00 
00 00 00 00 00 00 00 00 00 00 00 00 00 00 00 00 
00 00 00 00 00 00 00 00 00 00 00 00 00 00 00 00 
00 00 00 00 00 00 00 00 00 00 00 00 00 00 00 00 
00 00 00 00 00 00 00 00 00 00 00 00 00 00 00 00 
00 00 00 00 00 00 00 00 00 00 00 00 00 00 00 00 
00 00 00 00 00 00 00 00 00 00 00 00 00 00 00 00 

EF_PuK_RSA (0E00) UPDATE BINARY Block #3:
00 D6 00 E0 2B 
00 00 00 00 00 00 00 00 00 00 00 00 00 00 00 00 
00 00 00 00 00 00 00 00 00 00 00 00 00 00 00 00 
00 00 00 00 00 00 00 00 00 00 00 

EF_PrK_RSA (0F00) CREATE:
00 E0 00 00 10 
62 0E 82 05 12 41 00 BD 06 83 02 0F 00 8A 01 05 

EF_PrK_RSA (0F00) APPEND RECORD #1:
00 E2 00 00 BD 
92 81 00 00 00 00 00 00 00 00 00 00 00 00 00 00 
00 00 00 00 00 00 00 00 00 00 00 00 00 00 00 00 
00 00 00 00 00 00 00 00 00 00 00 00 00 00 00 00 
00 00 00 00 00 00 00 00 00 00 00 00 00 00 00 00 
00 00 00 00 00 00 00 00 00 00 00 00 00 00 00 00 
00 00 00 00 00 00 00 00 00 00 00 00 00 00 00 00 
00 00 00 00 00 00 00 00 00 00 00 00 00 00 00 00 
00 00 00 00 00 00 00 00 00 00 00 00 00 00 00 00 
00 00 00 00 00 00 00 00 00 00 00 00 00 00 00 00 
00 00 00 00 00 00 00 00 00 00 00 00 00 00 00 00 
00 00 00 00 00 00 00 00 00 00 00 00 00 00 00 00 
00 00 00 00 00 00 00 00 00 00 00 00 00 

EF_PrK_RSA (0F00) APPEND RECORD #2:
00 E2 00 00 BD 
93 81 00 00 00 00 00 00 00 00 00 00 00 00 00 00 
00 00 00 00 00 00 00 00 00 00 00 00 00 00 00 00 
00 00 00 00 00 00 00 00 00 00 00 00 00 00 00 00 
00 00 00 00 00 00 00 00 00 00 00 00 00 00 00 00 
00 00 00 00 00 00 00 00 00 00 00 00 00 00 00 00 
00 00 00 00 00 00 00 00 00 00 00 00 00 00 00 00 
00 00 00 00 00 00 00 00 00 00 00 00 00 00 00 00 
00 00 00 00 00 00 00 00 00 00 00 00 00 00 00 00 
00 00 00 00 00 00 00 00 00 00 00 00 00 00 00 00 
00 00 00 00 00 00 00 00 00 00 00 00 00 00 00 00 
00 00 00 00 00 00 00 00 00 00 00 00 00 00 00 00 
00 00 00 00 00 00 00 00 00 00 00 00 00 

EF_PrK_RSA (0F00) APPEND RECORD #3:
00 E2 00 00 BD 
94 81 00 00 00 00 00 00 00 00 00 00 00 00 00 00 
00 00 00 00 00 00 00 00 00 00 00 00 00 00 00 00 
00 00 00 00 00 00 00 00 00 00 00 00 00 00 00 00 
00 00 00 00 00 00 00 00 00 00 00 00 00 00 00 00 
00 00 00 00 00 00 00 00 00 00 00 00 00 00 00 00 
00 00 00 00 00 00 00 00 00 00 00 00 00 00 00 00 
00 00 00 00 00 00 00 00 00 00 00 00 00 00 00 00 
00 00 00 00 00 00 00 00 00 00 00 00 00 00 00 00 
00 00 00 00 00 00 00 00 00 00 00 00 00 00 00 00 
00 00 00 00 00 00 00 00 00 00 00 00 00 00 00 00 
00 00 00 00 00 00 00 00 00 00 00 00 00 00 00 00 
00 00 00 00 00 00 00 00 00 00 00 00 00 

EF_PrK_RSA (0F00) APPEND RECORD #4:
00 E2 00 00 BD 
95 81 00 00 00 00 00 00 00 00 00 00 00 00 00 00 
00 00 00 00 00 00 00 00 00 00 00 00 00 00 00 00 
00 00 00 00 00 00 00 00 00 00 00 00 00 00 00 00 
00 00 00 00 00 00 00 00 00 00 00 00 00 00 00 00 
00 00 00 00 00 00 00 00 00 00 00 00 00 00 00 00 
00 00 00 00 00 00 00 00 00 00 00 00 00 00 00 00 
00 00 00 00 00 00 00 00 00 00 00 00 00 00 00 00 
00 00 00 00 00 00 00 00 00 00 00 00 00 00 00 00 
00 00 00 00 00 00 00 00 00 00 00 00 00 00 00 00 
00 00 00 00 00 00 00 00 00 00 00 00 00 00 00 00 
00 00 00 00 00 00 00 00 00 00 00 00 00 00 00 00 
00 00 00 00 00 00 00 00 00 00 00 00 00 

EF_PrK_RSA (0F00) APPEND RECORD #5:
00 E2 00 00 BD 
96 81 00 00 00 00 00 00 00 00 00 00 00 00 00 00 
00 00 00 00 00 00 00 00 00 00 00 00 00 00 00 00 
00 00 00 00 00 00 00 00 00 00 00 00 00 00 00 00 
00 00 00 00 00 00 00 00 00 00 00 00 00 00 00 00 
00 00 00 00 00 00 00 00 00 00 00 00 00 00 00 00 
00 00 00 00 00 00 00 00 00 00 00 00 00 00 00 00 
00 00 00 00 00 00 00 00 00 00 00 00 00 00 00 00 
00 00 00 00 00 00 00 00 00 00 00 00 00 00 00 00 
00 00 00 00 00 00 00 00 00 00 00 00 00 00 00 00 
00 00 00 00 00 00 00 00 00 00 00 00 00 00 00 00 
00 00 00 00 00 00 00 00 00 00 00 00 00 00 00 00 
00 00 00 00 00 00 00 00 00 00 00 00 00 

EF_PrK_RSA (0F00) APPEND RECORD #6:
00 E2 00 00 BD 
97 81 03 01 00 01 00 00 00 00 00 00 00 00 00 00 
00 00 00 00 00 00 00 00 00 00 00 00 00 00 00 00 
00 00 00 00 00 00 00 00 00 00 00 00 00 00 00 00 
00 00 00 00 00 00 00 00 00 00 00 00 00 00 00 00 
00 00 00 00 00 00 00 00 00 00 00 00 00 00 00 00 
00 00 00 00 00 00 00 00 00 00 00 00 00 00 00 00 
00 00 00 00 00 00 00 00 00 00 00 00 00 00 00 00 
00 00 00 00 00 00 00 00 00 00 00 00 00 00 00 00 
00 00 00 00 00 00 00 00 00 00 00 00 00 00 00 00 
00 00 00 00 00 00 00 00 00 00 00 00 00 00 00 00 
00 00 00 00 00 00 00 00 00 00 00 00 00 00 00 00 
00 00 00 00 00 00 00 00 00 00 00 00 00 

EF_KEYD (0013) CREATE:
00 E0 00 00 14 
62 12 82 05 14 41 00 4A 03 83 02 00 13 85 02 00 
7D 8A 01 05 

EF_KEYD (0013) APPEND RECORD #1:
00 E2 00 00 43 
94 06 01 00 0F 00 0E 00 D0 07 81 81 80 84 00 92 
00 8A 01 05 A1 03 8B 01 02 7B 28 80 01 00 B8 04 
89 02 11 30 B6 03 89 01 41 B6 05 89 03 13 13 10 
B6 04 89 02 13 13 B6 04 89 02 13 23 B6 05 89 03 
13 23 10 

EF_KEYD (0013) APPEND RECORD #2:
00 E2 00 00 3A 
93 04 01 00 0E 00 D0 05 81 81 80 84 00 8A 01 05 
A1 03 8B 01 02 7B 23 80 01 00 B8 04 89 02 11 30 
B6 05 89 03 13 13 10 B6 04 89 02 13 13 B6 04 89 
02 13 23 B6 05 89 03 13 23 10 

EF_KEYD (0013) MANAGE SECURITY ENVIRONMENT:
00 22 41 B6 08 
84 03 80 01 00 89 01 41 

EF_KEYD (0013) GENERATE ASYMMETRIC KEY PAIR:
00 46 00 00 

MF (3F00) SELECT:
00 A4 03 0C 

MF (3F00) ACTIVATE:
00 44 00 00 

